[
{
  "directory": "/Users/ocarre/Documents/workbench/ecs/build/Debug",
  "command": "/opt/homebrew/opt/ccache/libexec/clang++ -I/Users/ocarre/Documents/workbench/ecs/src/core/src -I/opt/homebrew/opt/llvm/include -I/opt/homebrew/opt/llvm/include/c++/v1 -std=c++17 -Wall -Wextra -std=c++20 -g -arch arm64 -isysroot /Library/Developer/CommandLineTools/SDKs/MacOSX13.3.sdk -o core/CMakeFiles/ecs.dir/src/ecs/core/component.cpp.o -c /Users/ocarre/Documents/workbench/ecs/src/core/src/ecs/core/component.cpp",
  "file": "/Users/ocarre/Documents/workbench/ecs/src/core/src/ecs/core/component.cpp",
  "output": "core/CMakeFiles/ecs.dir/src/ecs/core/component.cpp.o"
},
{
  "directory": "/Users/ocarre/Documents/workbench/ecs/build/Debug",
  "command": "/opt/homebrew/opt/ccache/libexec/clang++ -I/Users/ocarre/Documents/workbench/ecs/src/core/src -I/opt/homebrew/opt/llvm/include -I/opt/homebrew/opt/llvm/include/c++/v1 -std=c++17 -Wall -Wextra -std=c++20 -g -arch arm64 -isysroot /Library/Developer/CommandLineTools/SDKs/MacOSX13.3.sdk -o core/CMakeFiles/ecs.dir/src/ecs/core/component/transform.cpp.o -c /Users/ocarre/Documents/workbench/ecs/src/core/src/ecs/core/component/transform.cpp",
  "file": "/Users/ocarre/Documents/workbench/ecs/src/core/src/ecs/core/component/transform.cpp",
  "output": "core/CMakeFiles/ecs.dir/src/ecs/core/component/transform.cpp.o"
},
{
  "directory": "/Users/ocarre/Documents/workbench/ecs/build/Debug",
  "command": "/opt/homebrew/opt/ccache/libexec/clang++ -I/Users/ocarre/Documents/workbench/ecs/src/core/src -I/opt/homebrew/opt/llvm/include -I/opt/homebrew/opt/llvm/include/c++/v1 -std=c++17 -Wall -Wextra -std=c++20 -g -arch arm64 -isysroot /Library/Developer/CommandLineTools/SDKs/MacOSX13.3.sdk -o core/CMakeFiles/ecs.dir/src/ecs/core/entity.cpp.o -c /Users/ocarre/Documents/workbench/ecs/src/core/src/ecs/core/entity.cpp",
  "file": "/Users/ocarre/Documents/workbench/ecs/src/core/src/ecs/core/entity.cpp",
  "output": "core/CMakeFiles/ecs.dir/src/ecs/core/entity.cpp.o"
},
{
  "directory": "/Users/ocarre/Documents/workbench/ecs/build/Debug",
  "command": "/opt/homebrew/opt/ccache/libexec/clang++ -I/Users/ocarre/Documents/workbench/ecs/src/core/src -I/opt/homebrew/opt/llvm/include -I/opt/homebrew/opt/llvm/include/c++/v1 -std=c++17 -Wall -Wextra -std=c++20 -g -arch arm64 -isysroot /Library/Developer/CommandLineTools/SDKs/MacOSX13.3.sdk -o core/CMakeFiles/ecs.dir/src/ecs/core/graph.cpp.o -c /Users/ocarre/Documents/workbench/ecs/src/core/src/ecs/core/graph.cpp",
  "file": "/Users/ocarre/Documents/workbench/ecs/src/core/src/ecs/core/graph.cpp",
  "output": "core/CMakeFiles/ecs.dir/src/ecs/core/graph.cpp.o"
},
{
  "directory": "/Users/ocarre/Documents/workbench/ecs/build/Debug",
  "command": "/opt/homebrew/opt/ccache/libexec/clang++ -I/Users/ocarre/Documents/workbench/ecs/src/core/src -I/opt/homebrew/opt/llvm/include -I/opt/homebrew/opt/llvm/include/c++/v1 -std=c++17 -Wall -Wextra -std=c++20 -g -arch arm64 -isysroot /Library/Developer/CommandLineTools/SDKs/MacOSX13.3.sdk -o core/CMakeFiles/ecs.dir/src/ecs/core/system/transform.cpp.o -c /Users/ocarre/Documents/workbench/ecs/src/core/src/ecs/core/system/transform.cpp",
  "file": "/Users/ocarre/Documents/workbench/ecs/src/core/src/ecs/core/system/transform.cpp",
  "output": "core/CMakeFiles/ecs.dir/src/ecs/core/system/transform.cpp.o"
},
{
  "directory": "/Users/ocarre/Documents/workbench/ecs/build/Debug",
  "command": "/opt/homebrew/opt/ccache/libexec/clang++ -I/Users/ocarre/Documents/workbench/ecs/src/core/src -I/opt/homebrew/opt/llvm/include -I/opt/homebrew/opt/llvm/include/c++/v1 -std=c++17 -Wall -Wextra -std=c++20 -g -arch arm64 -isysroot /Library/Developer/CommandLineTools/SDKs/MacOSX13.3.sdk -o runner/CMakeFiles/runner.dir/src/main.cpp.o -c /Users/ocarre/Documents/workbench/ecs/src/runner/src/main.cpp",
  "file": "/Users/ocarre/Documents/workbench/ecs/src/runner/src/main.cpp",
  "output": "runner/CMakeFiles/runner.dir/src/main.cpp.o"
}
]